{
	"slide": {
		"title": "Sample Data"
	},
	"settings": {
		"fieldMappings": {
			"list_item": "{{name}} - {{gift_amount}}"
		},
		"slide": {
			"orientation": "vertical"
		},
		"page": [
			{
				"data": {
					"title": "Title",
					"sub_title": "Sub Title",
					"footer": "2018"
				},
				"style": {
					"colors": {
						"slideBackground": "rgba(0, 0, 0, 1)",
						"headingBackground": "rgba(255,255,255,1.0)",
						"titleBackground": "rgba(255, 255, 255, 1)",
						"titleText": "rgba(32,32,32, 1)",
						"subtitleText": "rgba(174, 7, 41, 1.0)",
						"locationText": "rgba(255, 255, 255, 1.0)"
					},
					"images": {
						"background": "assets/img/background.jpg",
						"logo": "assets/img/logo.png",
						"noeventsbackground": ""
					}
				},
				"filters": {}
			},
			{
				"data": {
					"title": "Title - Page 2",
					"sub_title": "Sub Title",
					"footer": "2019"
				},
				"style": {
					"colors": {
						"slideBackground": "rgba(150, 150, 150, 1)",
						"headingBackground": "rgba(255,255,255,1.0)",
						"titleBackground": "rgba(255, 255, 255, 1)",
						"titleText": "rgba(32,32,32, 1)",
						"subtitleText": "rgba(174, 7, 41, 1.0)",
						"locationText": "rgba(255, 255, 255, 1.0)"
					},
					"images": {
						"background": "assets/img/background.jpg",
						"logo": "assets/img/logo.png",
						"noeventsbackground": ""
					}
				},
				"filters": {}
			}
		]
	},
	"data": [
		{
			"constituent_id": 505,
			"name": "George Sercl",
			"gift_amount": 100000,
			"fy_2018_donor_level": "$100,000 and above",
			"donor_level_title": "Philanthropist",
			"notes": null
		},
		{
			"constituent_id": "8-10240346",
			"name": "Otto Bremer Foundation",
			"gift_amount": 100000,
			"fy_2018_donor_level": "$100,000 and above",
			"donor_level_title": "Philanthropist",
			"notes": null
		},
		{
			"constituent_id": "8-10278674",
			"name": "rms",
			"gift_amount": 55623,
			"fy_2018_donor_level": "$50,000 to $99,999",
			"donor_level_title": "Benefactor",
			"notes": null
		},
		{
			"constituent_id": "1084ATC",
			"name": "Anoka County",
			"gift_amount": 50000,
			"fy_2018_donor_level": "$50,000 to $99,999",
			"donor_level_title": "Benefactor",
			"notes": "Forgivable Loan"
		},
		{
			"constituent_id": "8-10196844",
			"name": "Ramsey Lions Club",
			"gift_amount": 50000,
			"fy_2018_donor_level": "$50,000 to $99,999",
			"donor_level_title": "Benefactor",
			"notes": null
		},
		{
			"constituent_id": "8-10196872",
			"name": "Connexus Energy",
			"gift_amount": 36400,
			"fy_2018_donor_level": "$10,000 to $49,999",
			"donor_level_title": "Champion",
			"notes": "$20k on $50k Commitment; + $5000 Table + $1000 Fund the Need + $10000 Gen Op"
		},
		{
			"constituent_id": 528,
			"name": "McCulloch Family Foundation",
			"gift_amount": 35600,
			"fy_2018_donor_level": "$10,000 to $49,999",
			"donor_level_title": "Champion",
			"notes": null
		},
		{
			"constituent_id": "8-10196731",
			"name": "North Suburban Hospital District",
			"gift_amount": 30000,
			"fy_2018_donor_level": "$10,000 to $49,999",
			"donor_level_title": "Champion",
			"notes": null
		},
		{
			"constituent_id": 915,
			"name": "Tab & Slot LLc",
			"gift_amount": 26659,
			"fy_2018_donor_level": "$10,000 to $49,999",
			"donor_level_title": "Champion",
			"notes": null
		},
		{
			"constituent_id": "8-10348522",
			"name": "Verne & Susan McPherson",
			"gift_amount": 25500,
			"fy_2018_donor_level": "$10,000 to $49,999",
			"donor_level_title": "Champion",
			"notes": "$20k Installment on $100k Pledge"
		},
		{
			"constituent_id": 3476,
			"name": "Lowell Inc",
			"gift_amount": 25000,
			"fy_2018_donor_level": "$10,000 to $49,999",
			"donor_level_title": "Champion",
			"notes": null
		},
		{
			"constituent_id": "8-10194863",
			"name": "Jim & Pam Deal",
			"gift_amount": 23000,
			"fy_2018_donor_level": "$10,000 to $49,999",
			"donor_level_title": "Champion",
			"notes": null
		},
		{
			"constituent_id": 542,
			"name": "Velma Kingston",
			"gift_amount": 22027.36,
			"fy_2018_donor_level": "$10,000 to $49,999",
			"donor_level_title": "Champion",
			"notes": "Installment on $100k Pledge"
		},
		{
			"constituent_id": "2848ATC",
			"name": "Luther Automotive Services",
			"gift_amount": 18300,
			"fy_2018_donor_level": "$10,000 to $49,999",
			"donor_level_title": "Champion",
			"notes": null
		},
		{
			"constituent_id": "8-10160185",
			"name": "Kopp Family Foundation",
			"gift_amount": 17500,
			"fy_2018_donor_level": "$10,000 to $49,999",
			"donor_level_title": "Champion",
			"notes": null
		},
		{
			"constituent_id": 282,
			"name": "Thomas Stillwell",
			"gift_amount": 15993.6,
			"fy_2018_donor_level": "$10,000 to $49,999",
			"donor_level_title": "Champion",
			"notes": "Anonymous Donor"
		},
		{
			"constituent_id": "8-10197763",
			"name": "Andy's Electric Inc.",
			"gift_amount": 15000,
			"fy_2018_donor_level": "$10,000 to $49,999",
			"donor_level_title": "Champion",
			"notes": null
		},
		{
			"constituent_id": "240ATC",
			"name": "Medtronic, Inc.",
			"gift_amount": 14703,
			"fy_2018_donor_level": "$10,000 to $49,999",
			"donor_level_title": "Champion",
			"notes": null
		},
		{
			"constituent_id": "8-10283182",
			"name": "Graco Foundation",
			"gift_amount": 10500,
			"fy_2018_donor_level": "$10,000 to $49,999",
			"donor_level_title": "Champion",
			"notes": null
		},
		{
			"constituent_id": "1009ATC",
			"name": "Allina Health System",
			"gift_amount": 10100,
			"fy_2018_donor_level": "$10,000 to $49,999",
			"donor_level_title": "Champion",
			"notes": "?"
		},
		{
			"constituent_id": "373ATC",
			"name": "Caterpillar Global Paving Products, Inc.",
			"gift_amount": 10000,
			"fy_2018_donor_level": "$10,000 to $49,999",
			"donor_level_title": "Champion",
			"notes": null
		},
		{
			"constituent_id": "893ATC",
			"name": "Anderson & Dahlen, Inc.",
			"gift_amount": 9600,
			"fy_2018_donor_level": "$5,000 to $9,999",
			"donor_level_title": "Sponsor",
			"notes": null
		},
		{
			"constituent_id": "141ATC",
			"name": "Federal Premium",
			"gift_amount": 8749,
			"fy_2018_donor_level": "$5,000 to $9,999",
			"donor_level_title": "Sponsor",
			"notes": "Includes VISTA Outdoor"
		},
		{
			"constituent_id": "1052ATC",
			"name": "Production Engineering Corp.",
			"gift_amount": 7950,
			"fy_2018_donor_level": "$5,000 to $9,999",
			"donor_level_title": "Sponsor",
			"notes": null
		},
		{
			"constituent_id": 1145,
			"name": "Timothy Gess",
			"gift_amount": 7000,
			"fy_2018_donor_level": "$5,000 to $9,999",
			"donor_level_title": "Sponsor",
			"notes": null
		},
		{
			"constituent_id": "43ATC",
			"name": "Pentair",
			"gift_amount": 5820,
			"fy_2018_donor_level": "$5,000 to $9,999",
			"donor_level_title": "Sponsor",
			"notes": null
		},
		{
			"constituent_id": 2871,
			"name": "Altec Spray Equipment",
			"gift_amount": 5800,
			"fy_2018_donor_level": "$5,000 to $9,999",
			"donor_level_title": "Sponsor",
			"notes": null
		},
		{
			"constituent_id": "8-10342490",
			"name": "AID Electric Corporation",
			"gift_amount": 5500,
			"fy_2018_donor_level": "$5,000 to $9,999",
			"donor_level_title": "Sponsor",
			"notes": null
		},
		{
			"constituent_id": "61ATC",
			"name": "Cretex Companies, Inc.",
			"gift_amount": 5000,
			"fy_2018_donor_level": "$5,000 to $9,999",
			"donor_level_title": "Sponsor",
			"notes": null
		},
		{
			"constituent_id": "2017ATC",
			"name": "Walter Gustavson",
			"gift_amount": 5000,
			"fy_2018_donor_level": "$5,000 to $9,999",
			"donor_level_title": "Sponsor",
			"notes": "Anonymous Donor"
		},
		{
			"constituent_id": 2892,
			"name": "Michael Mendiola",
			"gift_amount": 4900,
			"fy_2018_donor_level": "$1,000 to $4,999",
			"donor_level_title": "Advocate",
			"notes": null
		},
		{
			"constituent_id": 3490,
			"name": "Chandler Industries, Inc.",
			"gift_amount": 4500,
			"fy_2018_donor_level": "$1,000 to $4,999",
			"donor_level_title": "Advocate",
			"notes": null
		},
		{
			"constituent_id": 3461,
			"name": "CHF Solutions",
			"gift_amount": 4000,
			"fy_2018_donor_level": "$1,000 to $4,999",
			"donor_level_title": "Advocate",
			"notes": null
		},
		{
			"constituent_id": 2896,
			"name": "Chuck & Judy Babcock",
			"gift_amount": 4000,
			"fy_2018_donor_level": "$1,000 to $4,999",
			"donor_level_title": "Advocate",
			"notes": null
		},
		{
			"constituent_id": "8-10195073",
			"name": "Mate Precision Tooling",
			"gift_amount": 4000,
			"fy_2018_donor_level": "$1,000 to $4,999",
			"donor_level_title": "Advocate",
			"notes": null
		},
		{
			"constituent_id": 3396,
			"name": "Tammy Johnson-Folta",
			"gift_amount": 4000,
			"fy_2018_donor_level": "$1,000 to $4,999",
			"donor_level_title": "Advocate",
			"notes": null
		},
		{
			"constituent_id": 2897,
			"name": "ABB, Inc.",
			"gift_amount": 3750,
			"fy_2018_donor_level": "$1,000 to $4,999",
			"donor_level_title": "Advocate",
			"notes": null
		},
		{
			"constituent_id": "335ATC",
			"name": "North Memorial Medical Center",
			"gift_amount": 3600,
			"fy_2018_donor_level": "$1,000 to $4,999",
			"donor_level_title": "Advocate",
			"notes": null
		},
		{
			"constituent_id": 3449,
			"name": "Allen Riess",
			"gift_amount": 3500,
			"fy_2018_donor_level": "$1,000 to $4,999",
			"donor_level_title": "Advocate",
			"notes": null
		},
		{
			"constituent_id": 3480,
			"name": "Sharlene J. Ellis",
			"gift_amount": 3500,
			"fy_2018_donor_level": "$1,000 to $4,999",
			"donor_level_title": "Advocate",
			"notes": null
		},
		{
			"constituent_id": "400ATC",
			"name": "Anoka Area Chamber of Commerce",
			"gift_amount": 3300,
			"fy_2018_donor_level": "$1,000 to $4,999",
			"donor_level_title": "Advocate",
			"notes": null
		},
		{
			"constituent_id": 3412,
			"name": "Alison Golla",
			"gift_amount": 3015,
			"fy_2018_donor_level": "$1,000 to $4,999",
			"donor_level_title": "Advocate",
			"notes": null
		},
		{
			"constituent_id": 2911,
			"name": "Ashley Maranowski",
			"gift_amount": 3000,
			"fy_2018_donor_level": "$1,000 to $4,999",
			"donor_level_title": "Advocate",
			"notes": null
		},
		{
			"constituent_id": "8-10195139",
			"name": "Coon Rapids Lions Foundation, Inc.",
			"gift_amount": 3000,
			"fy_2018_donor_level": "$1,000 to $4,999",
			"donor_level_title": "Advocate",
			"notes": null
		},
		{
			"constituent_id": "1938ATC",
			"name": "Elmer L. Andersen Foundation",
			"gift_amount": 3000,
			"fy_2018_donor_level": "$1,000 to $4,999",
			"donor_level_title": "Advocate",
			"notes": null
		},
		{
			"constituent_id": "137ATC",
			"name": "Mercy Hospital Auxiliary",
			"gift_amount": 3000,
			"fy_2018_donor_level": "$1,000 to $4,999",
			"donor_level_title": "Advocate",
			"notes": null
		},
		{
			"constituent_id": 1160,
			"name": "Michael D. Frazier",
			"gift_amount": 3000,
			"fy_2018_donor_level": "$1,000 to $4,999",
			"donor_level_title": "Advocate",
			"notes": null
		},
		{
			"constituent_id": 3443,
			"name": "Milow Electric, Inc.",
			"gift_amount": 3000,
			"fy_2018_donor_level": "$1,000 to $4,999",
			"donor_level_title": "Advocate",
			"notes": null
		},
		{
			"constituent_id": "2721ATC",
			"name": "Tolerance Masters",
			"gift_amount": 3000,
			"fy_2018_donor_level": "$1,000 to $4,999",
			"donor_level_title": "Advocate",
			"notes": null
		},
		{
			"constituent_id": "8-10159390",
			"name": "Anoka-Ramsey Community College",
			"gift_amount": 3000,
			"fy_2018_donor_level": "$1,000 to $4,999",
			"donor_level_title": "Advocate",
			"notes": null
		},
		{
			"constituent_id": 3397,
			"name": "Christopher J. Smothes",
			"gift_amount": 2900,
			"fy_2018_donor_level": "$1,000 to $4,999",
			"donor_level_title": "Advocate",
			"notes": null
		},
		{
			"constituent_id": 657,
			"name": "Bob Sands",
			"gift_amount": 2795,
			"fy_2018_donor_level": "$1,000 to $4,999",
			"donor_level_title": "Advocate",
			"notes": null
		},
		{
			"constituent_id": null,
			"name": "Jay Boyle",
			"gift_amount": 2700,
			"fy_2018_donor_level": "$1,000 to $4,999",
			"donor_level_title": "Advocate",
			"notes": "Payroll"
		},
		{
			"constituent_id": "301ATC",
			"name": "Bank of the West",
			"gift_amount": 2600,
			"fy_2018_donor_level": "$1,000 to $4,999",
			"donor_level_title": "Advocate",
			"notes": null
		},
		{
			"constituent_id": "2754ATC",
			"name": "William S. Kingston",
			"gift_amount": 2500,
			"fy_2018_donor_level": "$1,000 to $4,999",
			"donor_level_title": "Advocate",
			"notes": "$20,000 Unofficial Commitment"
		},
		{
			"constituent_id": 3477,
			"name": "Mari Skalicky",
			"gift_amount": 2500,
			"fy_2018_donor_level": "$1,000 to $4,999",
			"donor_level_title": "Advocate",
			"notes": null
		},
		{
			"constituent_id": "2842ATC",
			"name": "MPMA Education Foundation",
			"gift_amount": 2500,
			"fy_2018_donor_level": "$1,000 to $4,999",
			"donor_level_title": "Advocate",
			"notes": null
		},
		{
			"constituent_id": "1508ATC",
			"name": "Anoka Lions Club",
			"gift_amount": 2000,
			"fy_2018_donor_level": "$1,000 to $4,999",
			"donor_level_title": "Advocate",
			"notes": null
		},
		{
			"constituent_id": "8-10196979",
			"name": "Coon Rapids Rotary Foundation",
			"gift_amount": 2000,
			"fy_2018_donor_level": "$1,000 to $4,999",
			"donor_level_title": "Advocate",
			"notes": null
		},
		{
			"constituent_id": "8-10196076",
			"name": "Dorothy Rosenwinkel",
			"gift_amount": 2000,
			"fy_2018_donor_level": "$1,000 to $4,999",
			"donor_level_title": "Advocate",
			"notes": null
		},
		{
			"constituent_id": "1731ATC",
			"name": "Larry & Delores Peterson",
			"gift_amount": 2000,
			"fy_2018_donor_level": "$1,000 to $4,999",
			"donor_level_title": "Advocate",
			"notes": null
		},
		{
			"constituent_id": 1144,
			"name": "Michele Kemmetmueller",
			"gift_amount": 2000,
			"fy_2018_donor_level": "$1,000 to $4,999",
			"donor_level_title": "Advocate",
			"notes": null
		},
		{
			"constituent_id": "2800ATC",
			"name": "Depo International, Inc.",
			"gift_amount": 2000,
			"fy_2018_donor_level": "$1,000 to $4,999",
			"donor_level_title": "Advocate",
			"notes": null
		},
		{
			"constituent_id": 2872,
			"name": "Jan Andersson",
			"gift_amount": 1975,
			"fy_2018_donor_level": "$1,000 to $4,999",
			"donor_level_title": "Advocate",
			"notes": null
		},
		{
			"constituent_id": null,
			"name": "Julie Myers",
			"gift_amount": 1950,
			"fy_2018_donor_level": "$1,000 to $4,999",
			"donor_level_title": "Advocate",
			"notes": "Payroll"
		},
		{
			"constituent_id": 299,
			"name": "Safe Reflections, Inc.",
			"gift_amount": 1750,
			"fy_2018_donor_level": "$1,000 to $4,999",
			"donor_level_title": "Advocate",
			"notes": null
		},
		{
			"constituent_id": 3395,
			"name": "Jackie Sandusky",
			"gift_amount": 1700,
			"fy_2018_donor_level": "$1,000 to $4,999",
			"donor_level_title": "Advocate",
			"notes": null
		},
		{
			"constituent_id": 3415,
			"name": "George Stensgard",
			"gift_amount": 1600,
			"fy_2018_donor_level": "$1,000 to $4,999",
			"donor_level_title": "Advocate",
			"notes": null
		},
		{
			"constituent_id": 475,
			"name": "Elaina Bleifield",
			"gift_amount": 1520,
			"fy_2018_donor_level": "$1,000 to $4,999",
			"donor_level_title": "Advocate",
			"notes": "Payroll +"
		},
		{
			"constituent_id": 291,
			"name": "Accelerated Innovations",
			"gift_amount": 1500,
			"fy_2018_donor_level": "$1,000 to $4,999",
			"donor_level_title": "Advocate",
			"notes": null
		},
		{
			"constituent_id": 538,
			"name": "Aggressive Hydraulics Inc.",
			"gift_amount": 1500,
			"fy_2018_donor_level": "$1,000 to $4,999",
			"donor_level_title": "Advocate",
			"notes": null
		},
		{
			"constituent_id": "303ATC",
			"name": "Bank of Elk River",
			"gift_amount": 1500,
			"fy_2018_donor_level": "$1,000 to $4,999",
			"donor_level_title": "Advocate",
			"notes": null
		},
		{
			"constituent_id": "8-10197809",
			"name": "City of Elk River",
			"gift_amount": 1500,
			"fy_2018_donor_level": "$1,000 to $4,999",
			"donor_level_title": "Advocate",
			"notes": null
		},
		{
			"constituent_id": "1489ATC",
			"name": "Fairview Health Services",
			"gift_amount": 1500,
			"fy_2018_donor_level": "$1,000 to $4,999",
			"donor_level_title": "Advocate",
			"notes": null
		},
		{
			"constituent_id": "2074ATC",
			"name": "General Mills, Inc.",
			"gift_amount": 1500,
			"fy_2018_donor_level": "$1,000 to $4,999",
			"donor_level_title": "Advocate",
			"notes": null
		},
		{
			"constituent_id": 3458,
			"name": "MMW ADMIN",
			"gift_amount": 1500,
			"fy_2018_donor_level": "$1,000 to $4,999",
			"donor_level_title": "Advocate",
			"notes": null
		},
		{
			"constituent_id": "86ATC",
			"name": "Sgt.John Rice VFW, Post #6316",
			"gift_amount": 1500,
			"fy_2018_donor_level": "$1,000 to $4,999",
			"donor_level_title": "Advocate",
			"notes": null
		},
		{
			"constituent_id": 514,
			"name": "Todd Nelson",
			"gift_amount": 1500,
			"fy_2018_donor_level": "$1,000 to $4,999",
			"donor_level_title": "Advocate",
			"notes": null
		},
		{
			"constituent_id": "1909ATC",
			"name": "UMC, Inc.",
			"gift_amount": 1500,
			"fy_2018_donor_level": "$1,000 to $4,999",
			"donor_level_title": "Advocate",
			"notes": null
		},
		{
			"constituent_id": 1146,
			"name": "Leah Rene Skurdal",
			"gift_amount": 1487,
			"fy_2018_donor_level": "$1,000 to $4,999",
			"donor_level_title": "Advocate",
			"notes": null
		},
		{
			"constituent_id": "2830ATC",
			"name": "Pete Gravett",
			"gift_amount": 1330,
			"fy_2018_donor_level": "$1,000 to $4,999",
			"donor_level_title": "Advocate",
			"notes": "Payroll +"
		},
		{
			"constituent_id": null,
			"name": "Dina Humble",
			"gift_amount": 1300,
			"fy_2018_donor_level": "$1,000 to $4,999",
			"donor_level_title": "Advocate",
			"notes": "Payroll"
		},
		{
			"constituent_id": null,
			"name": "Jennifer Sati",
			"gift_amount": 1300,
			"fy_2018_donor_level": "$1,000 to $4,999",
			"donor_level_title": "Advocate",
			"notes": "Payroll"
		},
		{
			"constituent_id": "8-10194664",
			"name": "Karen L. Skepper",
			"gift_amount": 1300,
			"fy_2018_donor_level": "$1,000 to $4,999",
			"donor_level_title": "Advocate",
			"notes": null
		},
		{
			"constituent_id": 3460,
			"name": "Karla R. Kocher",
			"gift_amount": 1300,
			"fy_2018_donor_level": "$1,000 to $4,999",
			"donor_level_title": "Advocate",
			"notes": null
		},
		{
			"constituent_id": null,
			"name": "Rebecca Driscoll",
			"gift_amount": 1300,
			"fy_2018_donor_level": "$1,000 to $4,999",
			"donor_level_title": "Advocate",
			"notes": "Payroll"
		},
		{
			"constituent_id": 3405,
			"name": "Robert Warhol",
			"gift_amount": 1300,
			"fy_2018_donor_level": "$1,000 to $4,999",
			"donor_level_title": "Advocate",
			"notes": null
		},
		{
			"constituent_id": "1904ATC",
			"name": "Mike Tieleman",
			"gift_amount": 1275,
			"fy_2018_donor_level": "$1,000 to $4,999",
			"donor_level_title": "Advocate",
			"notes": null
		},
		{
			"constituent_id": 2833,
			"name": "Erik Brown",
			"gift_amount": 1200,
			"fy_2018_donor_level": "$1,000 to $4,999",
			"donor_level_title": "Advocate",
			"notes": null
		},
		{
			"constituent_id": 2853,
			"name": "Hegle Court Reporting",
			"gift_amount": 1200,
			"fy_2018_donor_level": "$1,000 to $4,999",
			"donor_level_title": "Advocate",
			"notes": null
		},
		{
			"constituent_id": "2297ATC",
			"name": "Jean Jurek",
			"gift_amount": 1110,
			"fy_2018_donor_level": "$1,000 to $4,999",
			"donor_level_title": "Advocate",
			"notes": null
		},
		{
			"constituent_id": null,
			"name": "Mary Lebens",
			"gift_amount": 1084.55,
			"fy_2018_donor_level": "$1,000 to $4,999",
			"donor_level_title": "Advocate",
			"notes": "Payroll"
		},
		{
			"constituent_id": 269,
			"name": "Brendon Paulson",
			"gift_amount": 1060,
			"fy_2018_donor_level": "$1,000 to $4,999",
			"donor_level_title": "Advocate",
			"notes": "Payroll +"
		},
		{
			"constituent_id": 3479,
			"name": "Matthew L. Johnson",
			"gift_amount": 1055,
			"fy_2018_donor_level": "$1,000 to $4,999",
			"donor_level_title": "Advocate",
			"notes": null
		},
		{
			"constituent_id": "2832ATC",
			"name": "Matthew Rogers",
			"gift_amount": 1020,
			"fy_2018_donor_level": "$1,000 to $4,999",
			"donor_level_title": "Advocate",
			"notes": "Payroll +"
		},
		{
			"constituent_id": "1679ATC",
			"name": "Anoka Technical College",
			"gift_amount": 1000,
			"fy_2018_donor_level": "$1,000 to $4,999",
			"donor_level_title": "Advocate",
			"notes": null
		},
		{
			"constituent_id": 2854,
			"name": "Jazmin Perez",
			"gift_amount": 1000,
			"fy_2018_donor_level": "$1,000 to $4,999",
			"donor_level_title": "Advocate",
			"notes": null
		},
		{
			"constituent_id": "8-10318957",
			"name": "John Babcock",
			"gift_amount": 1000,
			"fy_2018_donor_level": "$1,000 to $4,999",
			"donor_level_title": "Advocate",
			"notes": null
		},
		{
			"constituent_id": 456,
			"name": "Kathleen A. Galiger",
			"gift_amount": 1000,
			"fy_2018_donor_level": "$1,000 to $4,999",
			"donor_level_title": "Advocate",
			"notes": null
		},
		{
			"constituent_id": "8-10278627",
			"name": "Kraus-Anderson Construction",
			"gift_amount": 1000,
			"fy_2018_donor_level": "$1,000 to $4,999",
			"donor_level_title": "Advocate",
			"notes": null
		},
		{
			"constituent_id": "894ATC",
			"name": "Lloyd Barthel",
			"gift_amount": 1000,
			"fy_2018_donor_level": "$1,000 to $4,999",
			"donor_level_title": "Advocate",
			"notes": null
		},
		{
			"constituent_id": 2893,
			"name": "Louis Szenay",
			"gift_amount": 1000,
			"fy_2018_donor_level": "$1,000 to $4,999",
			"donor_level_title": "Advocate",
			"notes": null
		},
		{
			"constituent_id": "353ATC",
			"name": "Mary T, Inc.",
			"gift_amount": 1000,
			"fy_2018_donor_level": "$1,000 to $4,999",
			"donor_level_title": "Advocate",
			"notes": null
		},
		{
			"constituent_id": "2829ATC",
			"name": "MAVRC",
			"gift_amount": 1000,
			"fy_2018_donor_level": "$1,000 to $4,999",
			"donor_level_title": "Advocate",
			"notes": null
		},
		{
			"constituent_id": "2817ATC",
			"name": "McKesson Foundation",
			"gift_amount": 1000,
			"fy_2018_donor_level": "$1,000 to $4,999",
			"donor_level_title": "Advocate",
			"notes": "Match for Jurek Gift"
		},
		{
			"constituent_id": "312ATC",
			"name": "Metal Craft Machine & Engineering",
			"gift_amount": 1000,
			"fy_2018_donor_level": "$1,000 to $4,999",
			"donor_level_title": "Advocate",
			"notes": null
		},
		{
			"constituent_id": 3445,
			"name": "Nicholas H Finstrom",
			"gift_amount": 1000,
			"fy_2018_donor_level": "$1,000 to $4,999",
			"donor_level_title": "Advocate",
			"notes": null
		},
		{
			"constituent_id": "2288ATC",
			"name": "Paradigm Reporting & Captioning",
			"gift_amount": 1000,
			"fy_2018_donor_level": "$1,000 to $4,999",
			"donor_level_title": "Advocate",
			"notes": null
		},
		{
			"constituent_id": "8-10349429",
			"name": "Professional & Workforce Training",
			"gift_amount": 1000,
			"fy_2018_donor_level": "$1,000 to $4,999",
			"donor_level_title": "Advocate",
			"notes": null
		},
		{
			"constituent_id": 278,
			"name": "Rasmussen-Northeast Bank Foundation",
			"gift_amount": 1000,
			"fy_2018_donor_level": "$1,000 to $4,999",
			"donor_level_title": "Advocate",
			"notes": "?"
		},
		{
			"constituent_id": 878,
			"name": "Sun Enterprises, Inc.",
			"gift_amount": 1000,
			"fy_2018_donor_level": "$1,000 to $4,999",
			"donor_level_title": "Advocate",
			"notes": null
		},
		{
			"constituent_id": 2908,
			"name": "Tri River Rodders",
			"gift_amount": 1000,
			"fy_2018_donor_level": "$1,000 to $4,999",
			"donor_level_title": "Advocate",
			"notes": null
		},
		{
			"constituent_id": "2311ATC",
			"name": "Twin Cities Model A Club",
			"gift_amount": 1000,
			"fy_2018_donor_level": "$1,000 to $4,999",
			"donor_level_title": "Advocate",
			"notes": null
		},
		{
			"constituent_id": "2705ATC",
			"name": "Wilson Tool International",
			"gift_amount": 1000,
			"fy_2018_donor_level": "$1,000 to $4,999",
			"donor_level_title": "Advocate",
			"notes": null
		},
		{
			"constituent_id": "1898ATC",
			"name": "Jay Gerdin",
			"gift_amount": 915,
			"fy_2018_donor_level": "$250 to $999",
			"donor_level_title": "Donor",
			"notes": "Payroll +"
		},
		{
			"constituent_id": "1961ATC",
			"name": "Jeffrey Mammenga",
			"gift_amount": 890,
			"fy_2018_donor_level": "$250 to $999",
			"donor_level_title": "Donor",
			"notes": "Payroll +"
		},
		{
			"constituent_id": "2344ATC",
			"name": "Daniel Truchon",
			"gift_amount": 800,
			"fy_2018_donor_level": "$250 to $999",
			"donor_level_title": "Donor",
			"notes": null
		},
		{
			"constituent_id": 2929,
			"name": "Peoples Realty Inc",
			"gift_amount": 750,
			"fy_2018_donor_level": "$250 to $999",
			"donor_level_title": "Donor",
			"notes": null
		},
		{
			"constituent_id": null,
			"name": "Noel Lutsey",
			"gift_amount": 629.98,
			"fy_2018_donor_level": "$250 to $999",
			"donor_level_title": "Donor",
			"notes": "Payroll"
		},
		{
			"constituent_id": null,
			"name": "Brian Schelkoph",
			"gift_amount": 625,
			"fy_2018_donor_level": "$250 to $999",
			"donor_level_title": "Donor",
			"notes": "Payroll"
		},
		{
			"constituent_id": 2852,
			"name": "Clifford Anderson",
			"gift_amount": 570,
			"fy_2018_donor_level": "$250 to $999",
			"donor_level_title": "Donor",
			"notes": null
		},
		{
			"constituent_id": null,
			"name": "David Larson",
			"gift_amount": 570,
			"fy_2018_donor_level": "$250 to $999",
			"donor_level_title": "Donor",
			"notes": "Payroll"
		},
		{
			"constituent_id": "2059ATC",
			"name": "Frank Plachecki",
			"gift_amount": 550,
			"fy_2018_donor_level": "$250 to $999",
			"donor_level_title": "Donor",
			"notes": null
		},
		{
			"constituent_id": null,
			"name": "Gerald Showalter",
			"gift_amount": 520,
			"fy_2018_donor_level": "$250 to $999",
			"donor_level_title": "Donor",
			"notes": "Payroll"
		},
		{
			"constituent_id": null,
			"name": "Kent Hanson",
			"gift_amount": 520,
			"fy_2018_donor_level": "$250 to $999",
			"donor_level_title": "Donor",
			"notes": "Payroll"
		},
		{
			"constituent_id": 3505,
			"name": "Jamie Barthel",
			"gift_amount": 510,
			"fy_2018_donor_level": "$250 to $999",
			"donor_level_title": "Donor",
			"notes": null
		},
		{
			"constituent_id": "96ATC",
			"name": "Alton G. Drury",
			"gift_amount": 500,
			"fy_2018_donor_level": "$250 to $999",
			"donor_level_title": "Donor",
			"notes": null
		},
		{
			"constituent_id": "98ATC",
			"name": "American Welding Society, NW Section",
			"gift_amount": 500,
			"fy_2018_donor_level": "$250 to $999",
			"donor_level_title": "Donor",
			"notes": null
		},
		{
			"constituent_id": 298,
			"name": "Antique Auto Club of America",
			"gift_amount": 500,
			"fy_2018_donor_level": "$250 to $999",
			"donor_level_title": "Donor",
			"notes": null
		},
		{
			"constituent_id": 3489,
			"name": "Bednarczyk Family Foundation",
			"gift_amount": 500,
			"fy_2018_donor_level": "$250 to $999",
			"donor_level_title": "Donor",
			"notes": null
		},
		{
			"constituent_id": "1235ATC",
			"name": "Gen Olson",
			"gift_amount": 500,
			"fy_2018_donor_level": "$250 to $999",
			"donor_level_title": "Donor",
			"notes": null
		},
		{
			"constituent_id": "1509ATC",
			"name": "Jack T. Schneider",
			"gift_amount": 500,
			"fy_2018_donor_level": "$250 to $999",
			"donor_level_title": "Donor",
			"notes": null
		},
		{
			"constituent_id": "2812ATC",
			"name": "Josh Headlee",
			"gift_amount": 500,
			"fy_2018_donor_level": "$250 to $999",
			"donor_level_title": "Donor",
			"notes": null
		},
		{
			"constituent_id": 543,
			"name": "Rick & Jan Meier",
			"gift_amount": 500,
			"fy_2018_donor_level": "$250 to $999",
			"donor_level_title": "Donor",
			"notes": "Where is Rick's $1000?"
		},
		{
			"constituent_id": "1684ATC",
			"name": "Shirley A. Curbow",
			"gift_amount": 500,
			"fy_2018_donor_level": "$250 to $999",
			"donor_level_title": "Donor",
			"notes": null
		},
		{
			"constituent_id": "8-10196790",
			"name": "Specialists in General Surgery,Ltd",
			"gift_amount": 500,
			"fy_2018_donor_level": "$250 to $999",
			"donor_level_title": "Donor",
			"notes": "Kamrun Jenebzedah"
		},
		{
			"constituent_id": 526,
			"name": "Thomas C. Kingston",
			"gift_amount": 500,
			"fy_2018_donor_level": "$250 to $999",
			"donor_level_title": "Donor",
			"notes": null
		},
		{
			"constituent_id": null,
			"name": "Sean Johns",
			"gift_amount": 490,
			"fy_2018_donor_level": "$250 to $999",
			"donor_level_title": "Donor",
			"notes": "Payroll"
		},
		{
			"constituent_id": "2574ATC",
			"name": "Emily Swanson",
			"gift_amount": 400,
			"fy_2018_donor_level": "$250 to $999",
			"donor_level_title": "Donor",
			"notes": null
		},
		{
			"constituent_id": 1147,
			"name": "Minnesota Health Information Management Association",
			"gift_amount": 400,
			"fy_2018_donor_level": "$250 to $999",
			"donor_level_title": "Donor",
			"notes": null
		},
		{
			"constituent_id": null,
			"name": "Pamela Mogensen",
			"gift_amount": 390,
			"fy_2018_donor_level": "$250 to $999",
			"donor_level_title": "Donor",
			"notes": "Payroll"
		},
		{
			"constituent_id": null,
			"name": "Tom Reid",
			"gift_amount": 390,
			"fy_2018_donor_level": "$250 to $999",
			"donor_level_title": "Donor",
			"notes": "Payroll"
		},
		{
			"constituent_id": null,
			"name": "Vicki Baumgartner",
			"gift_amount": 390,
			"fy_2018_donor_level": "$250 to $999",
			"donor_level_title": "Donor",
			"notes": "Payroll"
		},
		{
			"constituent_id": 3487,
			"name": "Bria Magnuson",
			"gift_amount": 380,
			"fy_2018_donor_level": "$250 to $999",
			"donor_level_title": "Donor",
			"notes": "Auction Items North Memorial"
		},
		{
			"constituent_id": null,
			"name": "Jane Schleusner",
			"gift_amount": 375,
			"fy_2018_donor_level": "$250 to $999",
			"donor_level_title": "Donor",
			"notes": "Payroll"
		},
		{
			"constituent_id": 2884,
			"name": "Svare Professional Engineering",
			"gift_amount": 375,
			"fy_2018_donor_level": "$250 to $999",
			"donor_level_title": "Donor",
			"notes": null
		},
		{
			"constituent_id": null,
			"name": "Cathy Bishop",
			"gift_amount": 360,
			"fy_2018_donor_level": "$250 to $999",
			"donor_level_title": "Donor",
			"notes": "Payroll +"
		},
		{
			"constituent_id": null,
			"name": "Johny Johnson",
			"gift_amount": 350,
			"fy_2018_donor_level": "$250 to $999",
			"donor_level_title": "Donor",
			"notes": "Payroll"
		},
		{
			"constituent_id": "2492ATC",
			"name": "Kevin M. Nicholson",
			"gift_amount": 350,
			"fy_2018_donor_level": "$250 to $999",
			"donor_level_title": "Donor",
			"notes": null
		},
		{
			"constituent_id": "8-10196906",
			"name": "Anonymous Donors",
			"gift_amount": 330,
			"fy_2018_donor_level": "$250 to $999",
			"donor_level_title": "Donor",
			"notes": null
		},
		{
			"constituent_id": null,
			"name": "Tracy Hoffman",
			"gift_amount": 312,
			"fy_2018_donor_level": "$250 to $999",
			"donor_level_title": "Donor",
			"notes": "Payroll"
		},
		{
			"constituent_id": 2832,
			"name": "Bloomington Daymakers Rotary Foundation",
			"gift_amount": 300,
			"fy_2018_donor_level": "$250 to $999",
			"donor_level_title": "Donor",
			"notes": null
		},
		{
			"constituent_id": "8-10195594",
			"name": "Gene Merriam",
			"gift_amount": 300,
			"fy_2018_donor_level": "$250 to $999",
			"donor_level_title": "Donor",
			"notes": null
		},
		{
			"constituent_id": "89ATC",
			"name": "Gerrie Driessen",
			"gift_amount": 300,
			"fy_2018_donor_level": "$250 to $999",
			"donor_level_title": "Donor",
			"notes": null
		},
		{
			"constituent_id": 507,
			"name": "Jeffrey L. Ludwig",
			"gift_amount": 300,
			"fy_2018_donor_level": "$250 to $999",
			"donor_level_title": "Donor",
			"notes": null
		},
		{
			"constituent_id": "8-10194104",
			"name": "Julie Hogie",
			"gift_amount": 300,
			"fy_2018_donor_level": "$250 to $999",
			"donor_level_title": "Donor",
			"notes": null
		},
		{
			"constituent_id": 3502,
			"name": "Leanne M. Ritz",
			"gift_amount": 300,
			"fy_2018_donor_level": "$250 to $999",
			"donor_level_title": "Donor",
			"notes": "Auction Item -- North Memorial Table"
		},
		{
			"constituent_id": "1093ATC",
			"name": "Robert M. Baker",
			"gift_amount": 300,
			"fy_2018_donor_level": "$250 to $999",
			"donor_level_title": "Donor",
			"notes": null
		},
		{
			"constituent_id": null,
			"name": "Mary Falk",
			"gift_amount": 285,
			"fy_2018_donor_level": "$250 to $999",
			"donor_level_title": "Donor",
			"notes": "Payroll +"
		},
		{
			"constituent_id": null,
			"name": "Angela Homan",
			"gift_amount": 260,
			"fy_2018_donor_level": "$250 to $999",
			"donor_level_title": "Donor",
			"notes": "Payroll"
		},
		{
			"constituent_id": null,
			"name": "Deb Longley",
			"gift_amount": 260,
			"fy_2018_donor_level": "$250 to $999",
			"donor_level_title": "Donor",
			"notes": "Payroll"
		},
		{
			"constituent_id": null,
			"name": "Kevin Lindstrom",
			"gift_amount": 260,
			"fy_2018_donor_level": "$250 to $999",
			"donor_level_title": "Donor",
			"notes": "Payroll"
		},
		{
			"constituent_id": null,
			"name": "Kim Bienfang",
			"gift_amount": 260,
			"fy_2018_donor_level": "$250 to $999",
			"donor_level_title": "Donor",
			"notes": "Payroll"
		},
		{
			"constituent_id": null,
			"name": "Lisa Hubbard",
			"gift_amount": 260,
			"fy_2018_donor_level": "$250 to $999",
			"donor_level_title": "Donor",
			"notes": "Payroll"
		},
		{
			"constituent_id": null,
			"name": "Stacey Wanovich",
			"gift_amount": 260,
			"fy_2018_donor_level": "$250 to $999",
			"donor_level_title": "Donor",
			"notes": "Payroll"
		},
		{
			"constituent_id": "2798ATC",
			"name": "Andrea Gruber Alferness",
			"gift_amount": 250,
			"fy_2018_donor_level": "$250 to $999",
			"donor_level_title": "Donor",
			"notes": null
		},
		{
			"constituent_id": "115ATC",
			"name": "Anoka Rotary Club",
			"gift_amount": 250,
			"fy_2018_donor_level": "$250 to $999",
			"donor_level_title": "Donor",
			"notes": null
		},
		{
			"constituent_id": "1395ATC",
			"name": "Bruce D. Sayler",
			"gift_amount": 250,
			"fy_2018_donor_level": "$250 to $999",
			"donor_level_title": "Donor",
			"notes": null
		},
		{
			"constituent_id": null,
			"name": "Darla Cullen",
			"gift_amount": 250,
			"fy_2018_donor_level": "$250 to $999",
			"donor_level_title": "Donor",
			"notes": "Payroll"
		},
		{
			"constituent_id": 3478,
			"name": "FACTS Reporting, Inc.",
			"gift_amount": 250,
			"fy_2018_donor_level": "$250 to $999",
			"donor_level_title": "Donor",
			"notes": null
		},
		{
			"constituent_id": "2577ATC",
			"name": "James Lanigan",
			"gift_amount": 250,
			"fy_2018_donor_level": "$250 to $999",
			"donor_level_title": "Donor",
			"notes": null
		},
		{
			"constituent_id": 2839,
			"name": "Linda Micko-Rasche",
			"gift_amount": 250,
			"fy_2018_donor_level": "$250 to $999",
			"donor_level_title": "Donor",
			"notes": null
		},
		{
			"constituent_id": "8-10194838",
			"name": "Mark Ethen",
			"gift_amount": 250,
			"fy_2018_donor_level": "$250 to $999",
			"donor_level_title": "Donor",
			"notes": null
		},
		{
			"constituent_id": 886,
			"name": "Scott Schulte",
			"gift_amount": 250,
			"fy_2018_donor_level": "$250 to $999",
			"donor_level_title": "Donor",
			"notes": null
		},
		{
			"constituent_id": null,
			"name": null,
			"gift_amount": null,
			"fy_2018_donor_level": null,
			"donor_level_title": null,
			"notes": null
		}
	]
}
